Iterating with Functional Programming
…
]

.pull-right[

```r
list.files("data") %>% 
  paste0("data/", .) %>%
  map(read_csv)
## [[1]]
## # A tibble: 54,535 x 10
##    Account_ID Transaction_Timest… Factor_A Factor_B Factor_C Factor_D
##         <int> <dttm>                 <int>    <int> <chr>       <int>
##  1          5 2009-01-08 00:16:41        2        6 VI             20
##  2         16 2009-01-20 22:40:08        2        6 VI             20
##  3         28 2009-01-19 13:24:55        2        6 VI             21
##  4         40 2009-01-05 16:10:58        2        6 VI             20
##  5         62 2009-01-21 19:13:13        2        6 VI             20
##  6         64 2009-01-01 18:53:02        7        6 MC             20
##  7         69 2009-01-08 00:15:19        2        6 VI             20
##  8         69 2009-01-19 09:33:22        2        6 VI             20
##  9         70 2009-01-05 12:07:47        2        6 VI             20
## 10         79 2009-01-07 19:41:18        7        6 MC             20
## # … with 54,525 more rows, and 4 more variables: Factor_E <chr>,
## #   Response <int>, Transaction_Status <chr>, Month <chr>
## 
## [[2]]
## # A tibble: 44,380 x 10
##    Account_ID Transaction_Timest… Factor_A Factor_B Factor_C Factor_D
##         <int> <dttm>                 <int>    <int> <chr>       <int>
##  1          3 2009-02-21 23:23:47        2        6 VI             20
##  2          7 2009-02-14 11:35:42        2        6 VI             20
##  3         17 2009-02-04 10:55:54        2        6 VI             20
##  4         21 2009-02-26 09:33:05        2        6 VI             20
##  5         24 2009-02-12 10:35:55        2        6 VI             20
##  6         24 2009-02-23 11:12:04        2        6 VI             20
##  7         24 2009-02-23 16:31:24        2        6 VI             20
##  8         24 2009-02-24 05:52:17        2        6 VI             20
##  9         24 2009-02-24 18:00:51        2        6 VI             20
## 10         24 2009-02-25 07:03:45        2        6 VI             20
## # … with 44,370 more rows, and 4 more variables: Factor_E <chr>,
## #   Response <int>, Transaction_Status <chr>, Month <chr>
## 
## [[3]]
## # A tibble: 53,259 x 10
##    Account_ID Transaction_Timest… Factor_A Factor_B Factor_C Factor_D
##         <int> <dttm>                 <int>    <int> <chr>       <int>
##  1          3 2009-03-09 00:12:28        2        6 VI             20
##  2         12 2009-03-01 08:31:28        8       18 AX             20
##  3         24 2009-03-01 08:12:31        2        6 VI             20
##  4         24 2009-03-01 21:11:28        2        6 VI             20
##  5         24 2009-03-02 09:22:40        2        6 VI             20
##  6         36 2009-03-24 00:41:44        2        6 VI             20
##  7         41 2009-03-11 12:02:39        8       18 AX             20
##  8         45 2009-03-03 09:07:40        2        6 VI             20
##  9         55 2009-03-01 16:22:52        7       15 MC             20
## 10         68 2009-03-12 14:38:26        2        6 VI             25
## # … with 53,249 more rows, and 4 more variables: Factor_E <chr>,
## #   Response <int>, Transaction_Status <chr>, Month <chr>
## 
## [[4]]
## # A tibble: 51,033 x 10
##    Account_ID Transaction_Timest… Factor_A Factor_B Factor_C Factor_D
##         <int> <dttm>                 <int>    <int> <chr>       <int>
##  1          8 2009-04-19 15:25:35        2        6 VI             20
##  2          8 2009-04-29 13:46:18        2        6 VI             20
##  3          9 2009-04-16 12:36:41        8       18 AX             20
##  4         19 2009-04-27 23:07:43        2        6 VI             20
##  5         25 2009-04-04 18:40:35        2        6 VI             20
##  6         25 2009-04-17 16:10:23        2       18 VI             20
##  7         25 2009-04-20 11:13:08        2        6 VI             20
##  8         25 2009-04-27 16:19:17        2        6 VI             20
##  9         28 2009-04-02 16:16:18        2        6 VI             21
## 10         42 2009-04-09 15:54:05        8       18 AX             20
## # … with 51,023 more rows, and 4 more variables: Factor_E <chr>,
## #   Response <int>, Transaction_Status <chr>, Month <chr>
## 
## [[5]]
## # A tibble: 55,079 x 10
##    Account_ID Transaction_Timest… Factor_A Factor_B Factor_C Factor_D
##         <int> <dttm>                 <int>    <int> <chr>       <int>
##  1         13 2009-05-28 21:58:48        8       18 AX             20
##  2         14 2009-05-10 00:13:13        2        6 VI             20
##  3         25 2009-05-09 18:15:11        2        6 VI             20
##  4         43 2009-05-13 12:09:34        8       18 AX             20
##  5         61 2009-05-08 21:39:52        7       15 MC             20
##  6         63 2009-05-16 16:47:49        2        6 VI             20
##  7         63 2009-05-28 10:42:34        2        6 VI             20
##  8         67 2009-05-25 16:42:46        7       15 MC             20
##  9         71 2009-05-11 13:11:47        8       18 AX             20
## 10         89 2009-05-14 23:14:11        8       18 AX             20
## # … with 55,069 more rows, and 4 more variables: Factor_E <chr>,
## #   Response <int>, Transaction_Status <chr>, Month <chr>
## 
## [[6]]
## # A tibble: 59,666 x 10
##    Account_ID Transaction_Timest… Factor_A Factor_B Factor_C Factor_D
##         <int> <dttm>                 <int>    <int> <chr>       <int>
##  1         15 2009-06-02 15:54:21        8       18 AX             20
##  2         43 2009-06-27 06:28:36        8       23 AX             21
##  3         73 2009-06-01 14:51:09        8       18 AX             20
##  4         78 2009-06-22 09:48:51        2        6 VI             20
##  5         82 2009-06-15 18:00:55        2        6 VI             20
##  6        106 2009-06-20 17:06:08        7       15 MC             20
##  7        106 2009-06-21 14:25:33        7       15 MC             20
##  8        124 2009-06-19 13:45:24        2        6 VI             25
##  9        133 2009-06-24 07:30:27        2        6 VI             20
## 10        138 2009-06-05 19:12:54        8       18 AX             20
## # … with 59,656 more rows, and 4 more variables: Factor_E <chr>,
## #   Response <int>, Transaction_Status <chr>, Month <chr>
## 
## [[7]]
## # A tibble: 64,268 x 10
##    Account_ID Transaction_Timest… Factor_A Factor_B Factor_C Factor_D
##         <int> <dttm>                 <int>    <int> <chr>       <int>
##  1          1 2009-07-13 19:08:50        8       23 AX             21
##  2         10 2009-07-27 01:38:10        7       15 MC             20
##  3         26 2009-07-13 10:58:51        8       23 AX             21
##  4         33 2009-07-19 11:03:08        2        6 VI             20
##  5         34 2009-07-29 18:52:02        2        6 VI             20
##  6         53 2009-07-11 14:05:26        2        6 VI             20
##  7         53 2009-07-27 00:15:00        2        6 VI             20
##  8         57 2009-07-09 09:32:24        7       15 MC             20
##  9         66 2009-07-30 12:02:44        2        6 VI             20
## 10         85 2009-07-10 14:49:25        8       23 AX             21
## # … with 64,258 more rows, and 4 more variables: Factor_E <chr>,
## #   Response <int>, Transaction_Status <chr>, Month <chr>
## 
## [[8]]
## # A tibble: 69,492 x 10
##    Account_ID Transaction_Timest… Factor_A Factor_B Factor_C Factor_D
##         <int> <dttm>                 <int>    <int> <chr>       <int>
##  1          4 2009-08-17 14:20:06        8       23 AX             21
##  2          6 2009-08-31 17:33:42        2        6 VI             25
##  3         22 2009-08-04 11:23:11        8       23 AX             26
##  4         22 2009-08-11 12:44:38        8       23 AX             26
##  5         32 2009-08-15 14:14:42        8       23 AX             21
##  6         37 2009-08-18 20:16:04        7       15 MC             20
##  7         49 2009-08-20 21:56:11        2        6 VI             20
##  8         56 2009-08-26 17:25:55        2        6 VI             20
##  9         60 2009-08-17 12:40:48        2        6 VI             20
## 10         81 2009-08-24 18:54:21        2        6 VI             20
## # … with 69,482 more rows, and 4 more variables: Factor_E <chr>,
## #   Response <int>, Transaction_Status <chr>, Month <chr>
## 
## [[9]]
## # A tibble: 71,855 x 10
##    Account_ID Transaction_Timest… Factor_A Factor_B Factor_C Factor_D
##         <int> <dttm>                 <int>    <int> <chr>       <int>
##  1         38 2009-09-12 09:51:42       10        6 DI             20
##  2         44 2009-09-28 17:04:10        8       23 AX             21
##  3         46 2009-09-13 14:27:57        2        6 VI             20
##  4         47 2009-09-11 10:01:57       10        6 DI             20
##  5         48 2009-09-11 18:22:22        2        6 VI             20
##  6         48 2009-09-23 21:40:03        2        6 VI             20
##  7         54 2009-09-18 04:35:50        2        6 VI             20
##  8         59 2009-09-20 14:35:43       10        6 DI             20
##  9         72 2009-09-21 18:53:42        7       15 MC             20
## 10         72 2009-09-28 16:53:15        7       15 MC             20
## # … with 71,845 more rows, and 4 more variables: Factor_E <chr>,
## #   Response <int>, Transaction_Status <chr>, Month <chr>
## 
## [[10]]
## # A tibble: 80,277 x 10
##    Account_ID Transaction_Timest… Factor_A Factor_B Factor_C Factor_D
##         <int> <dttm>                 <int>    <int> <chr>       <int>
##  1         11 2009-10-11 14:59:25        2        6 VI             20
##  2         20 2009-10-16 19:18:09       16        6 DI             20
##  3         25 2009-10-13 19:50:14        2        6 VI             20
##  4         35 2009-10-16 14:06:10        2        6 VI             20
##  5         38 2009-10-09 23:36:19       10        6 DI             20
##  6         44 2009-10-06 14:49:24        8       23 AX             21
##  7         51 2009-10-07 19:28:54        2        6 VI             20
##  8         58 2009-10-30 12:45:49        2        6 VI             20
##  9         73 2009-10-23 17:05:41       15       23 AX             21
## 10         75 2009-10-16 14:47:15        7       15 MC             20
## # … with 80,267 more rows, and 4 more variables: Factor_E <chr>,
## #   Response <int>, Transaction_Status <chr>, Month <chr>
## 
## [[11]]
## # A tibble: 94,315 x 10
##    Account_ID Transaction_Timest… Factor_A Factor_B Factor_C Factor_D
##         <int> <dttm>                 <int>    <int> <chr>       <int>
##  1          2 2009-11-18 22:58:29        7       15 MC             20
##  2          2 2009-11-25 11:24:29        7       15 MC             50
##  3          2 2009-11-25 11:26:15        7       15 MC             50
##  4          2 2009-11-25 12:12:34        7       15 MC             20
##  5         19 2009-11-09 23:40:38        2        6 VI             20
##  6         23 2009-11-25 15:30:42       15       23 AX             21
##  7         27 2009-11-30 20:45:45        7       15 MC             20
##  8         29 2009-11-23 09:11:07       15       23 AX             21
##  9         44 2009-11-05 00:45:21       15       23 AX             21
## 10         52 2009-11-05 15:28:04        2        6 VI             25
## # … with 94,305 more rows, and 4 more variables: Factor_E <chr>,
## #   Response <int>, Transaction_Status <chr>, Month <chr>
```
…
# output is logical
iris %>% map_lgl(is.numeric)
## Sepal.Length  Sepal.Width Petal.Length  Petal.Width      Species 
##         TRUE         TRUE         TRUE         TRUE        FALSE

# output is character
iris %>% map_chr(is.character)
## Sepal.Length  Sepal.Width Petal.Length  Petal.Width      Species 
##      "FALSE"      "FALSE"      "FALSE"      "FALSE"      "FALSE"

# output is data frame
mtcars %>% map_df(scale)
## # A tibble: 32 x 11
##       mpg    cyl    disp     hp   drat       wt   qsec     vs     am   gear
##     <dbl>  <dbl>   <dbl>  <dbl>  <dbl>    <dbl>  <dbl>  <dbl>  <dbl>  <dbl>
##  1  0.151 -0.105 -0.571  -0.535  0.568 -0.610   -0.777 -0.868  1.19   0.424
##  2  0.151 -0.105 -0.571  -0.535  0.568 -0.350   -0.464 -0.868  1.19   0.424
##  3  0.450 -1.22  -0.990  -0.783  0.474 -0.917    0.426  1.12   1.19   0.424
##  4  0.217 -0.105  0.220  -0.535 -0.966 -0.00230  0.890  1.12  -0.814 -0.932
##  5 -0.231  1.01   1.04    0.413 -0.835  0.228   -0.464 -0.868 -0.814 -0.932
##  6 -0.330 -0.105 -0.0462 -0.608 -1.56   0.248    1.33   1.12  -0.814 -0.932
##  7 -0.961  1.01   1.04    1.43  -0.723  0.361   -1.12  -0.868 -0.814 -0.932
##  8  0.715 -1.22  -0.678  -1.24   0.175 -0.0278   1.20   1.12  -0.814  0.424
##  9  0.450 -1.22  -0.726  -0.754  0.605 -0.0687   2.83   1.12  -0.814  0.424
## 10 -0.148 -0.105 -0.509  -0.345  0.605  0.228    0.253  1.12  -0.814  0.424
## # … with 22 more rows, and 1 more variable: carb <dbl>
```
…
