Day 2 Intro
…
--

.pull-right[

### Solution

```r
flights %>%
  select(carrier, matches("dep_|arr_")) %>%
  mutate_if(
    .predicate = is.numeric, 
    .funs = funs((. - mean(., na.rm = TRUE)) / sd(., na.rm = TRUE))
    )
## # A tibble: 336,776 x 7
##    carrier dep_time sched_dep_time dep_delay arr_time sched_arr_time
##    <chr>      <dbl>          <dbl>     <dbl>    <dbl>          <dbl>
##  1 UA         -1.70          -1.77    -0.265   -1.26           -1.44
##  2 UA         -1.67          -1.74    -0.215   -1.22           -1.42
##  3 AA         -1.65          -1.72    -0.265   -1.09           -1.38
##  4 B6         -1.65          -1.71    -0.339   -0.934          -1.03
##  5 DL         -1.63          -1.59    -0.464   -1.29           -1.41
##  6 UA         -1.63          -1.68    -0.414   -1.43           -1.63
##  7 B6         -1.63          -1.59    -0.439   -1.10           -1.37
##  8 EV         -1.62          -1.59    -0.389   -1.49           -1.64
##  9 B6         -1.62          -1.59    -0.389   -1.25           -1.39
## 10 AA         -1.62          -1.59    -0.364   -1.40           -1.59
## # … with 336,766 more rows, and 1 more variable: arr_delay <dbl>
```
…
]

--

.pull-right[

### Solution

```r
flights %>% 
  filter_at(vars(contains("delay")), any_vars(!is.na(.)))
## # A tibble: 328,521 x 19
##     year month   day dep_time sched_dep_time dep_delay arr_time
##    <int> <int> <int>    <int>          <int>     <dbl>    <int>
##  1  2013     1     1      517            515         2      830
##  2  2013     1     1      533            529         4      850
##  3  2013     1     1      542            540         2      923
##  4  2013     1     1      544            545        -1     1004
##  5  2013     1     1      554            600        -6      812
##  6  2013     1     1      554            558        -4      740
##  7  2013     1     1      555            600        -5      913
##  8  2013     1     1      557            600        -3      709
##  9  2013     1     1      557            600        -3      838
## 10  2013     1     1      558            600        -2      753
## # … with 328,511 more rows, and 12 more variables: sched_arr_time <int>,
## #   arr_delay <dbl>, carrier <chr>, flight <int>, tailnum <chr>,
## #   origin <chr>, dest <chr>, air_time <dbl>, distance <dbl>, hour <dbl>,
## #   minute <dbl>, time_hour <dttm>
```
…
--

.pull-right[

```r
flights %>%
  filter(arr_delay > 0) %>%
  select(carrier, tailnum, arr_delay) %>%
  mutate(severity = case_when(
    arr_delay < quantile(arr_delay, .25) ~ 1,
    arr_delay < quantile(arr_delay, .50) ~ 2,
    arr_delay < quantile(arr_delay, .75) ~ 3,
    TRUE                                 ~ 4
  ))
## # A tibble: 133,004 x 4
##    carrier tailnum arr_delay severity
##    <chr>   <chr>       <dbl>    <dbl>
##  1 UA      N14228         11        2
##  2 UA      N24211         20        2
##  3 AA      N619AA         33        3
##  4 UA      N39463         12        2
##  5 B6      N516JB         19        2
##  6 AA      N3ALAA          8        2
##  7 UA      N29129          7        1
##  8 AA      N3DUAA         31        3
##  9 MQ      N542MQ         12        2
## 10 MQ      N730MQ         16        2
## # … with 132,994 more rows
```
…
