Conditional Statements
…
* So how can we leverage these skills when performing exploratory data analysis?

* Most common is to use use `ifelse()`, `if_else()`, and `case_when()` within .blue.bold[`dplyr::mutate()`]

]

.pull-left[

```r
library(dplyr)

mpg %>%
  select(manufacturer, model, year, cty) %>%
* mutate(cty_rating = if_else(cty > median(cty), "Above", "Below"))
## # A tibble: 234 x 5
##    manufacturer model       year   cty cty_rating
##    <chr>        <chr>      <int> <int> <chr>     
##  1 audi         a4          1999    18 Above     
##  2 audi         a4          1999    21 Above     
##  3 audi         a4          2008    20 Above     
##  4 audi         a4          2008    21 Above     
##  5 audi         a4          1999    16 Below     
##  6 audi         a4          1999    18 Above     
##  7 audi         a4          2008    18 Above     
##  8 audi         a4 quattro  1999    18 Above     
##  9 audi         a4 quattro  1999    16 Below     
## 10 audi         a4 quattro  2008    20 Above     
## # … with 224 more rows
```

]

.pull-right[

```r
mpg %>%
  select(manufacturer, model, year, cty) %>%
* mutate(cty_rating = case_when(
*   cty < quantile(cty, .33) ~ "Low",
*   cty < quantile(cty, .77) ~ "Medium",
*   TRUE                     ~ "High"
* ))
## # A tibble: 234 x 5
##    manufacturer model       year   cty cty_rating
##    <chr>        <chr>      <int> <int> <chr>     
##  1 audi         a4          1999    18 Medium    
##  2 audi         a4          1999    21 High      
##  3 audi         a4          2008    20 High      
##  4 audi         a4          2008    21 High      
##  5 audi         a4          1999    16 Medium    
##  6 audi         a4          1999    18 Medium    
##  7 audi         a4          2008    18 Medium    
##  8 audi         a4 quattro  1999    18 Medium    
##  9 audi         a4 quattro  1999    16 Medium    
## 10 audi         a4 quattro  2008    20 High      
## # … with 224 more rows
```
…
--

.pull-right[

```r
nycflights13::flights %>%
  filter(arr_delay > 0) %>%
  select(carrier, tailnum, arr_delay) %>%
  mutate(severity = case_when(
    arr_delay < quantile(arr_delay, .25) ~ 1,
    arr_delay < quantile(arr_delay, .50) ~ 2,
    arr_delay < quantile(arr_delay, .75) ~ 3,
    TRUE                                 ~ 4
  ))
## # A tibble: 133,004 x 4
##    carrier tailnum arr_delay severity
##    <chr>   <chr>       <dbl>    <dbl>
##  1 UA      N14228         11        2
##  2 UA      N24211         20        2
##  3 AA      N619AA         33        3
##  4 UA      N39463         12        2
##  5 B6      N516JB         19        2
##  6 AA      N3ALAA          8        2
##  7 UA      N29129          7        1
##  8 AA      N3DUAA         31        3
##  9 MQ      N542MQ         12        2
## 10 MQ      N730MQ         16        2
## # … with 132,994 more rows
```
…
