Writing Functions
…
  special_import <- function(x) {
    if (quiet) {
      suppressMessages(readr::read_csv(x))
    } else {
      pb$tick()$print()
      suppressMessages(readr::read_csv(x))
    }
  }
  
  purrr::map_dfr(paste0("data/", files), special_import)
}

import_monthly_data(list.files("data"))
## |=================================================================|100% ~0 s remaining     
## # A tibble: 698,159 x 10
##    Account_ID Transaction_Timest… Factor_A Factor_B Factor_C Factor_D Factor_E Response
##         <int> <dttm>                 <int>    <int> <chr>       <int> <chr>       <int>
##  1          5 2009-01-08 00:16:41        2        6 VI             20 A            1020
##  2         16 2009-01-20 22:40:08        2        6 VI             20 H            1020
##  3         28 2009-01-19 13:24:55        2        6 VI             21 NULL         1020
##  4         40 2009-01-05 16:10:58        2        6 VI             20 H            1020
##  5         62 2009-01-21 19:13:13        2        6 VI             20 B            1020
##  6         64 2009-01-01 18:53:02        7        6 MC             20 NULL         1020
##  7         69 2009-01-08 00:15:19        2        6 VI             20 H            1020
##  8         69 2009-01-19 09:33:22        2        6 VI             20 H            1020
##  9         70 2009-01-05 12:07:47        2        6 VI             20 B            1020
## 10         79 2009-01-07 19:41:18        7        6 MC             20 NULL         1020
## # … with 698,149 more rows, and 2 more variables: Transaction_Status <chr>, Month <chr>
```
…
