Workflow
…
# Referring to subdirectories

Example 1: script is in the main directory but data is in a subdirectory

.pull-left[

<img src="images/r-project-example1.png" width="40%" style="display: block; margin: auto;" />

]

.pull-right[

```r
readr::read_csv("data/Month-01.csv")
## # A tibble: 54,535 x 10
##    Account_ID Transaction_Timest… Factor_A Factor_B Factor_C Factor_D
##         <int> <dttm>                 <int>    <int> <chr>       <int>
##  1          5 2009-01-08 00:16:41        2        6 VI             20
##  2         16 2009-01-20 22:40:08        2        6 VI             20
##  3         28 2009-01-19 13:24:55        2        6 VI             21
##  4         40 2009-01-05 16:10:58        2        6 VI             20
##  5         62 2009-01-21 19:13:13        2        6 VI             20
##  6         64 2009-01-01 18:53:02        7        6 MC             20
##  7         69 2009-01-08 00:15:19        2        6 VI             20
##  8         69 2009-01-19 09:33:22        2        6 VI             20
##  9         70 2009-01-05 12:07:47        2        6 VI             20
## 10         79 2009-01-07 19:41:18        7        6 MC             20
## # … with 54,525 more rows, and 4 more variables: Factor_E <chr>,
## #   Response <int>, Transaction_Status <chr>, Month <chr>
```
…
Example 2: script and data are in two separate subdirectories

.pull-left[

<img src="images/r-project-example2.png" width="40%" style="display: block; margin: auto;" />

]

.pull-right[

```r
readr::read_csv("../data/Month-01.csv")
## # A tibble: 54,535 x 10
##    Account_ID Transaction_Timest… Factor_A Factor_B Factor_C Factor_D
##         <int> <dttm>                 <int>    <int> <chr>       <int>
##  1          5 2009-01-08 00:16:41        2        6 VI             20
##  2         16 2009-01-20 22:40:08        2        6 VI             20
##  3         28 2009-01-19 13:24:55        2        6 VI             21
##  4         40 2009-01-05 16:10:58        2        6 VI             20
##  5         62 2009-01-21 19:13:13        2        6 VI             20
##  6         64 2009-01-01 18:53:02        7        6 MC             20
##  7         69 2009-01-08 00:15:19        2        6 VI             20
##  8         69 2009-01-19 09:33:22        2        6 VI             20
##  9         70 2009-01-05 12:07:47        2        6 VI             20
## 10         79 2009-01-07 19:41:18        7        6 MC             20
## # … with 54,525 more rows, and 4 more variables: Factor_E <chr>,
## #   Response <int>, Transaction_Status <chr>, Month <chr>
```
…
--

.pull-right[

### Solution

```r
# 1
here::here("data", "Month-09.csv")
## [1] "/Users/b294776/Desktop/Training/UC/Intermediate-R/data/Month-09.csv"

# 2
readr::read_csv(here::here("data", "Month-09.csv"))
## # A tibble: 71,855 x 10
##    Account_ID Transaction_Timest… Factor_A Factor_B Factor_C Factor_D Factor_E Response
##         <int> <dttm>                 <int>    <int> <chr>       <int> <chr>       <int>
##  1         38 2009-09-12 09:51:42       10        6 DI             20 NULL         1020
##  2         44 2009-09-28 17:04:10        8       23 AX             21 NULL         1020
##  3         46 2009-09-13 14:27:57        2        6 VI             20 C            1020
##  4         47 2009-09-11 10:01:57       10        6 DI             20 NULL         1020
##  5         48 2009-09-11 18:22:22        2        6 VI             20 B            1020
##  6         48 2009-09-23 21:40:03        2        6 VI             20 B            1020
##  7         54 2009-09-18 04:35:50        2        6 VI             20 A            1020
##  8         59 2009-09-20 14:35:43       10        6 DI             20 NULL         1020
##  9         72 2009-09-21 18:53:42        7       15 MC             20 MCW          1020
## 10         72 2009-09-28 16:53:15        7       15 MC             20 MCW          1020
## # … with 71,845 more rows, and 2 more variables: Transaction_Status <chr>, Month <chr>
```
…
