Scoped Variable Transformation
…
```r
library(nycflights13)  # data
library(dplyr)         # data transformation
```

]

.pull-right[

.font120.bold.center[Data]

```r
flights
## # A tibble: 336,776 x 19
##     year month   day dep_time sched_dep_time dep_delay arr_time
##    <int> <int> <int>    <int>          <int>     <dbl>    <int>
##  1  2013     1     1      517            515         2      830
##  2  2013     1     1      533            529         4      850
##  3  2013     1     1      542            540         2      923
##  4  2013     1     1      544            545        -1     1004
##  5  2013     1     1      554            600        -6      812
##  6  2013     1     1      554            558        -4      740
##  7  2013     1     1      555            600        -5      913
##  8  2013     1     1      557            600        -3      709
##  9  2013     1     1      557            600        -3      838
## 10  2013     1     1      558            600        -2      753
## # … with 336,766 more rows, and 12 more variables: sched_arr_time <int>,
## #   arr_delay <dbl>, carrier <chr>, flight <int>, tailnum <chr>,
## #   origin <chr>, dest <chr>, air_time <dbl>, distance <dbl>, hour <dbl>,
## #   minute <dbl>, time_hour <dttm>
```
…
* .opacity20[`group_by`: perform operations at different levels of your data]

* .opacity20[`arrange`: reorder data]

* .opacity20[`mutate`: create new variables]

]

.pull-right[

```r
# filter flights with arrival delay > 60 minutes
filter(flights, arr_delay > 60)
## # A tibble: 27,789 x 19
##     year month   day dep_time sched_dep_time dep_delay arr_time
##    <int> <int> <int>    <int>          <int>     <dbl>    <int>
##  1  2013     1     1      811            630       101     1047
##  2  2013     1     1      848           1835       853     1001
##  3  2013     1     1      957            733       144     1056
##  4  2013     1     1     1114            900       134     1447
##  5  2013     1     1     1120            944        96     1331
##  6  2013     1     1     1255           1200        55     1451
##  7  2013     1     1     1301           1150        71     1518
##  8  2013     1     1     1337           1220        77     1649
##  9  2013     1     1     1342           1320        22     1617
## 10  2013     1     1     1400           1250        70     1645
## # … with 27,779 more rows, and 12 more variables: sched_arr_time <int>,
## #   arr_delay <dbl>, carrier <chr>, flight <int>, tailnum <chr>,
## #   origin <chr>, dest <chr>, air_time <dbl>, distance <dbl>, hour <dbl>,
## #   minute <dbl>, time_hour <dttm>
```
…
* .opacity20[`group_by`: perform operations at different levels of your data]

* .opacity20[`arrange`: reorder data]

* .opacity20[`mutate`: create new variables]

]

.pull-right[

```r
# select carrier, year, month, day, and all variables containing "delay"
select(flights, carrier, year, month, day, contains("delay"))
## # A tibble: 336,776 x 6
##    carrier  year month   day dep_delay arr_delay
##    <chr>   <int> <int> <int>     <dbl>     <dbl>
##  1 UA       2013     1     1         2        11
##  2 UA       2013     1     1         4        20
##  3 AA       2013     1     1         2        33
##  4 B6       2013     1     1        -1       -18
##  5 DL       2013     1     1        -6       -25
##  6 UA       2013     1     1        -4        12
##  7 B6       2013     1     1        -5        19
##  8 EV       2013     1     1        -3       -14
##  9 B6       2013     1     1        -3        -8
## 10 AA       2013     1     1        -2         8
## # … with 336,766 more rows
```
…
--

.pull-right[

### Solution

```r
# 1
flights %>%
  group_by(dest) %>%
  summarize(med_arr_delay = median(arr_delay, na.rm = TRUE)) %>% 
  arrange(desc(med_arr_delay))
## # A tibble: 105 x 2
##    dest  med_arr_delay
##    <chr>         <dbl>
##  1 CAE            28  
##  2 OKC            16  
##  3 JAC            15  
##  4 TUL            14  
##  5 EYW             7  
##  6 SMF             4  
##  7 CAK             3  
##  8 HDN             2  
##  9 TYS             2  
## 10 ANC             1.5
## # … with 95 more rows
```
…
...or _say we wanted to standardize .red[all variables]_:

.font140.center[`df %>% mutate_all(.funs, ...)`]

--

```r
flights %>%
  mutate_all(scale)
## Error in mutate_impl(.data, dots): Evaluation error: 'x' must be numeric.

flights %>%
  select(-c(carrier, tailnum, origin, dest, time_hour)) %>%
* mutate_all(scale)
## # A tibble: 336,776 x 14
##    year[,1] month[,1] day[,1] dep_time[,1] sched_dep_time[… dep_delay[,1]
##       <dbl>     <dbl>   <dbl>        <dbl>            <dbl>         <dbl>
##  1      NaN     -1.63   -1.68        -1.70            -1.77        -0.265
##  2      NaN     -1.63   -1.68        -1.67            -1.74        -0.215
##  3      NaN     -1.63   -1.68        -1.65            -1.72        -0.265
##  4      NaN     -1.63   -1.68        -1.65            -1.71        -0.339
##  5      NaN     -1.63   -1.68        -1.63            -1.59        -0.464
##  6      NaN     -1.63   -1.68        -1.63            -1.68        -0.414
##  7      NaN     -1.63   -1.68        -1.63            -1.59        -0.439
##  8      NaN     -1.63   -1.68        -1.62            -1.59        -0.389
##  9      NaN     -1.63   -1.68        -1.62            -1.59        -0.389
## 10      NaN     -1.63   -1.68        -1.62            -1.59        -0.364
## # … with 336,766 more rows, and 8 more variables: arr_time[,1] <dbl>,
## #   sched_arr_time[,1] <dbl>, arr_delay[,1] <dbl>, flight[,1] <dbl>,
## #   air_time[,1] <dbl>, distance[,1] <dbl>, hour[,1] <dbl>,
## #   minute[,1] <dbl>
```

---

# Transform .red[all] variables with .red[`*_all()`]

What if we want to write our own <u>custom function</u> on the fly?

.pull-left[

```r
flights %>%
  select(-c(carrier, tailnum, origin, dest, time_hour)) %>%
* mutate_all(function(x) (x - mean(x, na.rm = TRUE)) / sd(x, na.rm = TRUE))
## # A tibble: 336,776 x 14
##     year month   day dep_time sched_dep_time dep_delay arr_time
##    <dbl> <dbl> <dbl>    <dbl>          <dbl>     <dbl>    <dbl>
##  1   NaN -1.63 -1.68    -1.70          -1.77    -0.265   -1.26 
##  2   NaN -1.63 -1.68    -1.67          -1.74    -0.215   -1.22 
##  3   NaN -1.63 -1.68    -1.65          -1.72    -0.265   -1.09 
##  4   NaN -1.63 -1.68    -1.65          -1.71    -0.339   -0.934
##  5   NaN -1.63 -1.68    -1.63          -1.59    -0.464   -1.29 
##  6   NaN -1.63 -1.68    -1.63          -1.68    -0.414   -1.43 
##  7   NaN -1.63 -1.68    -1.63          -1.59    -0.439   -1.10 
##  8   NaN -1.63 -1.68    -1.62          -1.59    -0.389   -1.49 
##  9   NaN -1.63 -1.68    -1.62          -1.59    -0.389   -1.25 
## 10   NaN -1.63 -1.68    -1.62          -1.59    -0.364   -1.40 
## # … with 336,766 more rows, and 7 more variables: sched_arr_time <dbl>,
## #   arr_delay <dbl>, flight <dbl>, air_time <dbl>, distance <dbl>,
## #   hour <dbl>, minute <dbl>
```

]

.pull-right[

```r
flights %>%
  select(-c(carrier, tailnum, origin, dest, time_hour)) %>%
* mutate_all(.funs = funs((. - mean(., na.rm = TRUE)) / sd(., na.rm = TRUE)))
## # A tibble: 336,776 x 14
##     year month   day dep_time sched_dep_time dep_delay arr_time
##    <dbl> <dbl> <dbl>    <dbl>          <dbl>     <dbl>    <dbl>
##  1   NaN -1.63 -1.68    -1.70          -1.77    -0.265   -1.26 
##  2   NaN -1.63 -1.68    -1.67          -1.74    -0.215   -1.22 
##  3   NaN -1.63 -1.68    -1.65          -1.72    -0.265   -1.09 
##  4   NaN -1.63 -1.68    -1.65          -1.71    -0.339   -0.934
##  5   NaN -1.63 -1.68    -1.63          -1.59    -0.464   -1.29 
##  6   NaN -1.63 -1.68    -1.63          -1.68    -0.414   -1.43 
##  7   NaN -1.63 -1.68    -1.63          -1.59    -0.439   -1.10 
##  8   NaN -1.63 -1.68    -1.62          -1.59    -0.389   -1.49 
##  9   NaN -1.63 -1.68    -1.62          -1.59    -0.389   -1.25 
## 10   NaN -1.63 -1.68    -1.62          -1.59    -0.364   -1.40 
## # … with 336,766 more rows, and 7 more variables: sched_arr_time <dbl>,
## #   arr_delay <dbl>, flight <dbl>, air_time <dbl>, distance <dbl>,
## #   hour <dbl>, minute <dbl>
```
…
.pull-right[

### Solution

```r
flights %>%
  mutate(
    month = as.character(month),
    day   = as.character(day)
  ) %>%
  group_by(month, day) %>%
  select(contains("time"), contains("delay")) %>%
  summarize_all(mean, na.rm = TRUE)
## # A tibble: 365 x 10
## # Groups:   month [?]
##    month day   dep_time sched_dep_time arr_time sched_arr_time air_time
##    <chr> <chr>    <dbl>          <dbl>    <dbl>          <dbl>    <dbl>
##  1 1     1        1385.          1372.    1562.          1568.     170.
##  2 1     10       1333.          1339.    1523.          1540.     147.
##  3 1     11       1326.          1337.    1508.          1538.     149.
##  4 1     12       1300.          1303.    1493.          1508.     148.
##  5 1     13       1395.          1399.    1495.          1597.     154.
##  6 1     14       1336.          1335.    1531.          1539.     155.
##  7 1     15       1328.          1330.    1533.          1541.     153.
##  8 1     16       1364.          1332.    1530.          1543.     161.
##  9 1     17       1343.          1336.    1541.          1544.     155.
## 10 1     18       1341.          1335.    1539.          1543.     149.
## # … with 355 more rows, and 3 more variables: time_hour <dttm>,
## #   dep_delay <dbl>, arr_delay <dbl>
```
…
# results in an error due to non-numeric variables
flights %>%
  mutate_all(standardize)
## Error in mutate_impl(.data, dots): Evaluation error: non-numeric argument to binary operator.

# works when performed on only numeric variables
flights %>%
* select(-c(carrier, tailnum, origin, dest, time_hour)) %>%
* mutate_all(standardize)
## # A tibble: 336,776 x 14
##     year month   day dep_time sched_dep_time dep_delay arr_time
##    <dbl> <dbl> <dbl>    <dbl>          <dbl>     <dbl>    <dbl>
##  1   NaN -1.63 -1.68    -1.70          -1.77    -0.265   -1.26 
##  2   NaN -1.63 -1.68    -1.67          -1.74    -0.215   -1.22 
##  3   NaN -1.63 -1.68    -1.65          -1.72    -0.265   -1.09 
##  4   NaN -1.63 -1.68    -1.65          -1.71    -0.339   -0.934
##  5   NaN -1.63 -1.68    -1.63          -1.59    -0.464   -1.29 
##  6   NaN -1.63 -1.68    -1.63          -1.68    -0.414   -1.43 
##  7   NaN -1.63 -1.68    -1.63          -1.59    -0.439   -1.10 
##  8   NaN -1.63 -1.68    -1.62          -1.59    -0.389   -1.49 
##  9   NaN -1.63 -1.68    -1.62          -1.59    -0.389   -1.25 
## 10   NaN -1.63 -1.68    -1.62          -1.59    -0.364   -1.40 
## # … with 336,766 more rows, and 7 more variables: sched_arr_time <dbl>,
## #   arr_delay <dbl>, flight <dbl>, air_time <dbl>, distance <dbl>,
## #   hour <dbl>, minute <dbl>
```
…
---

# Transform .red[some] variables with .red[`*_if()`]

Back to our problem of _wanting to standardize .red[only numeric variables]_:

.font150.center[`df %>% mutate_if(.predicate, .funs, ...)`]

```r
# standardize only numeric variables but keep ALL variables
flights %>%
* mutate_if(is.numeric, standardize)
## # A tibble: 336,776 x 19
##     year month   day dep_time sched_dep_time dep_delay arr_time
##    <dbl> <dbl> <dbl>    <dbl>          <dbl>     <dbl>    <dbl>
##  1   NaN -1.63 -1.68    -1.70          -1.77    -0.265   -1.26 
##  2   NaN -1.63 -1.68    -1.67          -1.74    -0.215   -1.22 
##  3   NaN -1.63 -1.68    -1.65          -1.72    -0.265   -1.09 
##  4   NaN -1.63 -1.68    -1.65          -1.71    -0.339   -0.934
##  5   NaN -1.63 -1.68    -1.63          -1.59    -0.464   -1.29 
##  6   NaN -1.63 -1.68    -1.63          -1.68    -0.414   -1.43 
##  7   NaN -1.63 -1.68    -1.63          -1.59    -0.439   -1.10 
##  8   NaN -1.63 -1.68    -1.62          -1.59    -0.389   -1.49 
##  9   NaN -1.63 -1.68    -1.62          -1.59    -0.389   -1.25 
## 10   NaN -1.63 -1.68    -1.62          -1.59    -0.364   -1.40 
## # … with 336,766 more rows, and 12 more variables: sched_arr_time <dbl>,
## #   arr_delay <dbl>, carrier <chr>, flight <dbl>, tailnum <chr>,
## #   origin <chr>, dest <chr>, air_time <dbl>, distance <dbl>, hour <dbl>,
## #   minute <dbl>, time_hour <dttm>
```
…
1. for each destination airport,
2. compute the median of all variables that contain "delay",
3. re-order the destinations in descending order based on all delay statistics

]

--

```r
flights %>%
  group_by(dest) %>%
  summarize_at(vars(contains("delay")), median, na.rm = TRUE) %>%
  arrange_if(is.numeric, desc)
## # A tibble: 105 x 3
##    dest  dep_delay arr_delay
##    <chr>     <dbl>     <dbl>
##  1 CAE        14        28  
##  2 SBN        14        -3.5
##  3 JAC        13.5      15  
##  4 OKC        10        16  
##  5 TUL         8        14  
##  6 HDN         6.5       2  
##  7 ANC         3         1.5
##  8 MTJ         3       -10.5
##  9 SMF         2         4  
## 10 MDW         2        -1  
## # … with 95 more rows
```
…
]

.center.font130.red[Any `select()` helper function can be used in `vars()`!]

--

.center.font110.red[and we can combine them just like we do in `select()`]

```r
flights %>%
  group_by(dest) %>%
  summarize_at(vars(contains("delay"), ends_with("time")), median, na.rm = TRUE)
## # A tibble: 105 x 8
##    dest  dep_delay arr_delay dep_time sched_dep_time arr_time
##    <chr>     <dbl>     <dbl>    <dbl>          <dbl>    <dbl>
##  1 ABQ           0      -5.5    2005            2001    2246.
##  2 ACK          -3      -3      1141            1140    1242 
##  3 ALB           1      -4      1738            1721    1832 
##  4 ANC           3       1.5    1618            1615    1957 
##  5 ATL          -2      -1      1317            1308    1535 
##  6 AUS          -1      -5      1652.           1655    1829 
##  7 AVL          -3      -1      1051            1053    1242 
##  8 BDL          -1     -10      1328.           1327    1414.
##  9 BGR          -2      -9      1842.           1825    1955 
## 10 BHM           1      -2      1947            1910    2120 
## # … with 95 more rows, and 2 more variables: sched_arr_time <dbl>,
## #   air_time <dbl>
```
…
* Additional arguments must be relevant to ___all___ functions

* Applicable to `*_all()`, `*_if()`, and `*at_()`

]
]

.pull-right-60[

```r
flights %>%
  group_by(dest) %>%
  summarize_at(vars(contains("delay")), funs(mean, sd), na.rm = TRUE)
## # A tibble: 105 x 5
##    dest  dep_delay_mean arr_delay_mean dep_delay_sd arr_delay_sd
##    <chr>          <dbl>          <dbl>        <dbl>        <dbl>
##  1 ABQ            13.7            4.38         30.5         42.0
##  2 ACK             6.46           4.85         26.3         30.0
##  3 ALB            23.6           14.4          48.6         50.5
##  4 ANC            12.9           -2.5          25.6         26.4
##  5 ATL            12.5           11.3          43.8         47.0
##  6 AUS            13.0            6.02         36.7         43.5
##  7 AVL             8.19           8.00         30.1         33.6
##  8 BDL            17.7            7.05         41.0         42.1
##  9 BGR            19.5            8.03         45.1         46.4
## 10 BHM            29.7           16.9          56.9         56.2
## # … with 95 more rows
```
…
]

---

# Filtering rows that meet certain conditions

.pull-left[

* The .red[`all_vars()`] function can be used to filter rows where .red[all variables meet the same logical condition]. <br><br>

```r
# This will return rows where all variables containing "delay" are NA
flights %>% 
  filter_at(vars(contains("delay")), all_vars(is.na(.)))
## # A tibble: 8,255 x 19
##     year month   day dep_time sched_dep_time dep_delay arr_time
##    <int> <int> <int>    <int>          <int>     <dbl>    <int>
##  1  2013     1     1       NA           1630        NA       NA
##  2  2013     1     1       NA           1935        NA       NA
##  3  2013     1     1       NA           1500        NA       NA
##  4  2013     1     1       NA            600        NA       NA
##  5  2013     1     2       NA           1540        NA       NA
##  6  2013     1     2       NA           1620        NA       NA
##  7  2013     1     2       NA           1355        NA       NA
##  8  2013     1     2       NA           1420        NA       NA
##  9  2013     1     2       NA           1321        NA       NA
## 10  2013     1     2       NA           1545        NA       NA
## # … with 8,245 more rows, and 12 more variables: sched_arr_time <int>,
## #   arr_delay <dbl>, carrier <chr>, flight <int>, tailnum <chr>,
## #   origin <chr>, dest <chr>, air_time <dbl>, distance <dbl>, hour <dbl>,
## #   minute <dbl>, time_hour <dttm>
```

]

--

.pull-right[

* The .red[`any_vars()`] function can be used to filter rows where .red[at least one variable meets the logical condition]. 

```r
# This will return rows where any variable containing "delay" is NA
flights %>% 
  filter_at(vars(contains("delay")), any_vars(is.na(.)))
## # A tibble: 9,430 x 19
##     year month   day dep_time sched_dep_time dep_delay arr_time
##    <int> <int> <int>    <int>          <int>     <dbl>    <int>
##  1  2013     1     1     1525           1530        -5     1934
##  2  2013     1     1     1528           1459        29     2002
##  3  2013     1     1     1740           1745        -5     2158
##  4  2013     1     1     1807           1738        29     2251
##  5  2013     1     1     1939           1840        59       29
##  6  2013     1     1     1952           1930        22     2358
##  7  2013     1     1     2016           1930        46       NA
##  8  2013     1     1       NA           1630        NA       NA
##  9  2013     1     1       NA           1935        NA       NA
## 10  2013     1     1       NA           1500        NA       NA
## # … with 9,420 more rows, and 12 more variables: sched_arr_time <int>,
## #   arr_delay <dbl>, carrier <chr>, flight <int>, tailnum <chr>,
## #   origin <chr>, dest <chr>, air_time <dbl>, distance <dbl>, hour <dbl>,
## #   minute <dbl>, time_hour <dttm>
```
…
Say we wanted to compute the median delay values for carriers by month and in doing so, we wanted to treat both `carrier` and `month` as factors.

.pull-left[

.center.font120.bold[Option A]

```r
flights %>%
  mutate( 
    carrier = as.factor(carrier),
    month   = as.factor(month)
  ) %>%
  group_by(carrier, month) %>%
  summarize_at(vars(contains("delay")), median, na.rm = TRUE)
## # A tibble: 185 x 4
## # Groups:   carrier [?]
##    carrier month dep_delay arr_delay
##    <fct>   <fct>     <dbl>     <dbl>
##  1 9E      1            -2        -4
##  2 9E      2            -3        -6
##  3 9E      3            -3       -11
##  4 9E      4            -3        -8
##  5 9E      5            -1        -8
##  6 9E      6             3        -2
##  7 9E      7             3        -1
##  8 9E      8             0        -8
##  9 9E      9            -4       -15
## 10 9E      10           -3       -10
## # … with 175 more rows
```

]

--

.pull-right[

.center.font120.bold[Option B]

```r
flights %>%
  group_by_at(vars(carrier, month), as.factor) %>%
  summarize_at(vars(contains("delay")), median, na.rm = TRUE)
## # A tibble: 185 x 4
## # Groups:   carrier [?]
##    carrier month dep_delay arr_delay
##    <fct>   <fct>     <dbl>     <dbl>
##  1 9E      1            -2        -4
##  2 9E      2            -3        -6
##  3 9E      3            -3       -11
##  4 9E      4            -3        -8
##  5 9E      5            -1        -8
##  6 9E      6             3        -2
##  7 9E      7             3        -1
##  8 9E      8             0        -8
##  9 9E      9            -4       -15
## 10 9E      10           -3       -10
## # … with 175 more rows
```
…
